Estructura jerárquica del IPC · CPIDataBase.jl
…
CPITree(base::FullCPIBase, tree::Union{Group, Item}, group_names::Vector{String}, group_codes::Vector{String})
CPITree(; base::FullCPIBase, groupsdf::DataFrame, characters::(NTuple{N, Int} where N), upperlevel_code = "_0", upperlevel_name = "IPC")
Contenedor envolvente de un árbol jerárquico del IPC y los datos necesarios de los gastos básicos para computar cualquier jerarquía dentro del árbol. Permite visualizar y explorar la composición del IPC de un país, así como computar los índices de precios de las diferentes jerarquías de la estructura del IPC. Está compuesto por: 
Un objeto base, de tipo FullCPIBase, el cual almacena las series de tiempo de los índices de los gastos básicos. 
Un objeto tree que contiene la estructura de nodos del IPC.
El vector de nombres group_names de los grupos del árbol tree.
El vector de códigos group_codes de los grupos del árbol tree.
El constructor simple requiere una estructura jerárquica de nodos como la devuelta por get_cpi_tree. Al utilizar el constructor con groupsdf y characters, se construye automáticamente un CPITree utilizando los códigos como indicadores de la estructura jerárquica. Los códigos de los gastos básicos contenidos en base describen cómo se agrupan las jerarquías. Por ejemplo, el siguiente FullCPIBase contiene 10 gastos básicos: 

julia> base
FullCPIBase{Float32, Float32}: 36 períodos × 10 gastos básicos Jan-01-Dec-03
┌─────┬────────────┬─────────┬─────────┬─────────┬─────────┬─────────┬─────────┬─────────┬─────────┬─────────┬─────────┐
│ Row │      Dates │ _011101 │ _011201 │ _011202 │ _021101 │ _022101 │ _031101 │ _041101 │ _041201 │ _041202 │ _041301 │
│     │            │  Item A │  Item B │  Item C │  Item D │  Item E │  Item F │  Item G │  Item H │  Item I │  Item J │
│     │            │ 11.8947 │ 2.39931 │ 7.80836 │ 1.58585 │  20.141 │ 12.0526 │ 9.56901 │ 14.6256 │ 15.0276 │ 4.89602 │
├─────┼────────────┼─────────┼─────────┼─────────┼─────────┼─────────┼─────────┼─────────┼─────────┼─────────┼─────────┤
│   1 │ 2001-01-01 │  100.00 │  100.00 │  100.00 │  100.00 │  100.00 │  101.13 │  100.00 │  100.00 │  100.51 │  100.00 │
│   2 │ 2001-02-01 │  100.00 │  100.00 │  100.00 │  100.00 │  100.00 │  102.28 │  100.00 │  100.00 │  101.02 │  100.00 │
│   3 │ 2001-03-01 │  100.00 │  100.00 │  100.00 │  100.00 │  100.00 │  103.44 │  100.00 │  100.00 │  101.53 │  100.00 │
│   4 │ 2001-04-01 │  100.00 │  100.00 │  100.00 │  100.00 │  100.00 │  104.61 │  100.00 │  100.00 │  102.05 │  100.00 │
│   5 │ 2001-05-01 │  100.00 │  100.00 │  100.00 │  100.00 │  100.00 │  105.79 │  100.00 │  100.00 │  102.56 │  100.00 │
│  ⋮  │     ⋮      │    ⋮    │    ⋮    │    ⋮    │    ⋮    │    ⋮    │    ⋮    │    ⋮    │    ⋮    │    ⋮    │    ⋮    │
│  32 │ 2003-08-01 │  100.00 │  100.00 │  100.00 │  100.00 │  100.00 │  143.39 │  100.00 │  100.00 │  117.59 │  100.00 │
│  33 │ 2003-09-01 │  100.00 │  100.00 │  100.00 │  100.00 │  100.00 │  145.02 │  100.00 │  100.00 │  118.19 │  100.00 │
│  34 │ 2003-10-01 │  100.00 │  100.00 │  100.00 │  100.00 │  100.00 │  146.66 │  100.00 │  100.00 │  118.79 │  100.00 │
│  35 │ 2003-11-01 │  100.00 │  100.00 │  100.00 │  100.00 │  100.00 │  148.32 │  100.00 │  100.00 │  119.39 │  100.00 │
│  36 │ 2003-12-01 │  100.00 │  100.00 │  100.00 │  100.00 │  100.00 │  150.00 │  100.00 │  100.00 │  120.00 │  100.00 │
└─────┴────────────┴─────────┴─────────┴─────────┴─────────┴─────────┴─────────┴─────────┴─────────┴─────────┴─────────┘
                                                                                                         26 rows omitted
…
