Introducción · CPIDataBase.jl
…
UniformCountryStructure{2, Float32, Float32} with 2 bases
└─→ VarCPIBase{Float32, Float32}: 120 periods × 218 items Jan-01-Dec-10 mean:0.2501
└─→ VarCPIBase{Float32, Float32}: 120 periods × 279 items Jan-11-Dec-20 mean:0.2503

Este contenedor posee los datos del IPC de Macronia de las últimas dos décadas. Está dividido en dos estructuras de datos denominadas VarCPIBase. Cada estructura contiene las variaciones intermensuales de los números índices de precios de los gastos básicos individuales del IPC de Macronia. A su vez, el IPC de Macronia está dividido históricamente en dos bases del IPC, cada una conlleva una  metodología diferente, con diferentes gastos básicos y ponderaciones en la canasta de consumo: 
Por ejemplo, estos son los datos históricos de Macronia en la década del 2000: 

countrydata[1]

VarCPIBase{Float32, Float32}: 120 periods × 218 items Jan-01-Dec-10 mean:0.2501
┌─────┬────────────┬───────────┬────────────┬────────────┬────────────┬─────────
│ Row │       Date │         1 │          2 │          3 │          4 │        ⋯
│     │            │ 0.9461434 │ 0.77864975 │ 0.67551976 │ 0.59269506 │ 0.6868 ⋯
├─────┼────────────┼───────────┼────────────┼────────────┼────────────┼─────────
│   1 │ 2001-01-01 │    0.3386 │     0.0349 │     0.0808 │     0.3237 │     0. ⋯
│   2 │ 2001-02-01 │    0.1221 │     0.2554 │     0.1295 │     0.4976 │     0. ⋯
│   3 │ 2001-03-01 │    0.0110 │     0.2258 │     0.2056 │     0.1604 │     0. ⋯
│   4 │ 2001-04-01 │    0.0837 │     0.1852 │     0.2823 │     0.4003 │     0. ⋯
│   5 │ 2001-05-01 │    0.2943 │     0.0652 │     0.3669 │     0.1192 │     0. ⋯
│   6 │ 2001-06-01 │    0.0500 │     0.1689 │     0.2866 │     0.2313 │     0. ⋯
│   7 │ 2001-07-01 │    0.1404 │     0.1647 │     0.1444 │     0.3330 │     0. ⋯
│   8 │ 2001-08-01 │    0.3654 │     0.1207 │     0.3908 │     0.4192 │     0. ⋯
│   ⋮ │          ⋮ │         ⋮ │          ⋮ │          ⋮ │          ⋮ │        ⋱
│ 114 │ 2010-06-01 │    0.4277 │     0.2855 │     0.3276 │     0.4426 │     0. ⋯
│ 115 │ 2010-07-01 │    0.0379 │     0.1101 │     0.0589 │     0.0978 │     0. ⋯
│ 116 │ 2010-08-01 │    0.1479 │     0.2624 │     0.4371 │     0.0621 │     0. ⋯
│ 117 │ 2010-09-01 │    0.4157 │     0.0929 │     0.3354 │     0.4144 │     0. ⋯
│ 118 │ 2010-10-01 │    0.3164 │     0.0879 │     0.1466 │     0.3477 │     0. ⋯
│ 119 │ 2010-11-01 │    0.1304 │     0.4239 │     0.1988 │     0.2633 │     0. ⋯
│ 120 │ 2010-12-01 │    0.4737 │     0.2657 │     0.2995 │     0.1332 │     0. ⋯
└─────┴────────────┴───────────┴────────────┴────────────┴────────────┴─────────
                                                214 columns and 105 rows omitted

Y estos son los datos históricos de Macronia en la década del 2010: 

countrydata[2]

VarCPIBase{Float32, Float32}: 120 periods × 279 items Jan-11-Dec-20 mean:0.2503
┌─────┬────────────┬────────────┬────────────┬────────────┬────────────┬────────
│ Row │       Date │          1 │          2 │          3 │          4 │       ⋯
│     │            │ 0.23239107 │ 0.11127574 │ 0.60950685 │ 0.30745924 │ 0.114 ⋯
├─────┼────────────┼────────────┼────────────┼────────────┼────────────┼────────
│   1 │ 2011-01-01 │     0.0112 │     0.2599 │     0.4497 │     0.1641 │     0 ⋯
│   2 │ 2011-02-01 │     0.1054 │     0.2963 │     0.3922 │     0.2921 │     0 ⋯
│   3 │ 2011-03-01 │     0.4234 │     0.4264 │     0.0660 │     0.3714 │     0 ⋯
│   4 │ 2011-04-01 │     0.0334 │     0.2118 │     0.4209 │     0.0001 │     0 ⋯
│   5 │ 2011-05-01 │     0.3975 │     0.0088 │     0.4119 │     0.1785 │     0 ⋯
│   6 │ 2011-06-01 │     0.3332 │     0.4441 │     0.3466 │     0.2416 │     0 ⋯
│   7 │ 2011-07-01 │     0.2462 │     0.2277 │     0.1112 │     0.2080 │     0 ⋯
│   8 │ 2011-08-01 │     0.0894 │     0.4439 │     0.4591 │     0.4574 │     0 ⋯
│   ⋮ │          ⋮ │          ⋮ │          ⋮ │          ⋮ │          ⋮ │       ⋱
│ 114 │ 2020-06-01 │     0.1232 │     0.3509 │     0.3260 │     0.3963 │     0 ⋯
│ 115 │ 2020-07-01 │     0.3126 │     0.1670 │     0.2715 │     0.3224 │     0 ⋯
│ 116 │ 2020-08-01 │     0.2592 │     0.2057 │     0.4965 │     0.4668 │     0 ⋯
│ 117 │ 2020-09-01 │     0.1421 │     0.0263 │     0.1652 │     0.4198 │     0 ⋯
│ 118 │ 2020-10-01 │     0.3825 │     0.3763 │     0.1961 │     0.4171 │     0 ⋯
│ 119 │ 2020-11-01 │     0.4071 │     0.2792 │     0.1888 │     0.0655 │     0 ⋯
│ 120 │ 2020-12-01 │     0.1261 │     0.2057 │     0.2706 │     0.4662 │     0 ⋯
└─────┴────────────┴────────────┴────────────┴────────────┴────────────┴────────
                                                275 columns and 105 rows omitted
…
