Introducción · CPIDataBase.jl
…
UniformCountryStructure{2, Float32, Float32} con 2 bases
└─→ VarCPIBase{Float32, Float32}: 120 períodos × 218 gastos básicos Jan-01-Dec-10
└─→ VarCPIBase{Float32, Float32}: 120 períodos × 279 gastos básicos Jan-11-Dec-20

Este contenedor posee los datos del IPC de Macronia de las últimas dos décadas. Está dividido en dos estructuras de datos denominadas VarCPIBase. Cada estructura contiene las variaciones intermensuales de los números índices de precios de los gastos básicos individuales del IPC de Macronia. A su vez, el IPC de Macronia está dividido históricamente en dos bases del IPC, cada una conlleva una  metodología diferente, con diferentes gastos básicos y ponderaciones en la canasta de consumo: 
Por ejemplo, estos son los datos históricos de Macronia en la década del 2000: 

countrydata[1]

VarCPIBase{Float32, Float32}: 120 períodos × 218 gastos básicos Jan-01-Dec-10
┌─────┬────────────┬──────────┬──────────┬──────────┬──────────┬──────────┬─────
│ Row │      Dates │        1 │        2 │        3 │        4 │        5 │    ⋯
│     │            │ 0.594818 │ 0.307931 │ 0.153558 │ 0.726739 │ 0.122272 │ 0. ⋯
├─────┼────────────┼──────────┼──────────┼──────────┼──────────┼──────────┼─────
│   1 │ 2001-01-01 │   0.4657 │   0.3523 │   0.1931 │   0.2668 │   0.0367 │    ⋯
│   2 │ 2001-02-01 │   0.4182 │   0.3033 │   0.0554 │   0.1432 │   0.3009 │    ⋯
│   3 │ 2001-03-01 │   0.4337 │   0.2307 │   0.4367 │   0.2993 │   0.4426 │    ⋯
│   4 │ 2001-04-01 │   0.0519 │   0.4239 │   0.4507 │   0.3446 │   0.0532 │    ⋯
│   5 │ 2001-05-01 │   0.3679 │   0.4733 │   0.3168 │   0.0830 │   0.3185 │    ⋯
│   6 │ 2001-06-01 │   0.2332 │   0.2667 │   0.4075 │   0.0229 │   0.1527 │    ⋯
│   7 │ 2001-07-01 │   0.1561 │   0.4229 │   0.1413 │   0.3694 │   0.2370 │    ⋯
│   8 │ 2001-08-01 │   0.1604 │   0.3415 │   0.1841 │   0.2735 │   0.2015 │    ⋯
│  ⋮  │     ⋮      │    ⋮     │    ⋮     │    ⋮     │    ⋮     │    ⋮     │    ⋱
│ 114 │ 2010-06-01 │   0.0519 │   0.4558 │   0.0502 │   0.2075 │   0.0253 │    ⋯
│ 115 │ 2010-07-01 │   0.1150 │   0.0303 │   0.0502 │   0.2739 │   0.4922 │    ⋯
│ 116 │ 2010-08-01 │   0.0552 │   0.1044 │   0.2277 │   0.2227 │   0.3378 │    ⋯
│ 117 │ 2010-09-01 │   0.0980 │   0.3918 │   0.4433 │   0.0788 │   0.4975 │    ⋯
│ 118 │ 2010-10-01 │   0.4638 │   0.4076 │   0.2026 │   0.4508 │   0.4295 │    ⋯
│ 119 │ 2010-11-01 │   0.1319 │   0.4505 │   0.2525 │   0.4599 │   0.1488 │    ⋯
│ 120 │ 2010-12-01 │   0.0529 │   0.0289 │   0.4228 │   0.4083 │   0.1835 │    ⋯
└─────┴────────────┴──────────┴──────────┴──────────┴──────────┴──────────┴─────
                                                213 columns and 105 rows omitted

Y estos son los datos históricos de Macronia en la década del 2010: 

countrydata[2]

VarCPIBase{Float32, Float32}: 120 períodos × 279 gastos básicos Jan-11-Dec-20
┌─────┬────────────┬─────────┬──────────┬───────────┬─────────┬──────────┬──────
│ Row │      Dates │       1 │        2 │         3 │       4 │        5 │     ⋯
│     │            │ 0.35803 │ 0.515756 │ 0.0758793 │ 0.48435 │ 0.286185 │ 0.4 ⋯
├─────┼────────────┼─────────┼──────────┼───────────┼─────────┼──────────┼──────
│   1 │ 2011-01-01 │  0.2655 │   0.1755 │    0.2677 │  0.4876 │   0.4407 │   0 ⋯
│   2 │ 2011-02-01 │  0.1092 │   0.4505 │    0.1209 │  0.4394 │   0.1098 │   0 ⋯
│   3 │ 2011-03-01 │  0.3253 │   0.3594 │    0.3433 │  0.3430 │   0.3860 │   0 ⋯
│   4 │ 2011-04-01 │  0.2293 │   0.1950 │    0.3368 │  0.2232 │   0.2294 │   0 ⋯
│   5 │ 2011-05-01 │  0.1961 │   0.3202 │    0.1157 │  0.1060 │   0.3012 │   0 ⋯
│   6 │ 2011-06-01 │  0.0279 │   0.2675 │    0.4914 │  0.3266 │   0.3760 │   0 ⋯
│   7 │ 2011-07-01 │  0.1800 │   0.3725 │    0.0908 │  0.1171 │   0.2606 │   0 ⋯
│   8 │ 2011-08-01 │  0.3159 │   0.2375 │    0.1118 │  0.1494 │   0.3726 │   0 ⋯
│  ⋮  │     ⋮      │    ⋮    │    ⋮     │     ⋮     │    ⋮    │    ⋮     │     ⋱
│ 114 │ 2020-06-01 │  0.2828 │   0.1840 │    0.1347 │  0.2950 │   0.2749 │   0 ⋯
│ 115 │ 2020-07-01 │  0.3017 │   0.0940 │    0.4959 │  0.3402 │   0.4573 │   0 ⋯
│ 116 │ 2020-08-01 │  0.3248 │   0.4966 │    0.1519 │  0.3700 │   0.4849 │   0 ⋯
│ 117 │ 2020-09-01 │  0.1734 │   0.2111 │    0.4853 │  0.1654 │   0.2396 │   0 ⋯
│ 118 │ 2020-10-01 │  0.2577 │   0.1926 │    0.0709 │  0.1899 │   0.2409 │   0 ⋯
│ 119 │ 2020-11-01 │  0.4435 │   0.0524 │    0.1758 │  0.2397 │   0.0931 │   0 ⋯
│ 120 │ 2020-12-01 │  0.1367 │   0.0625 │    0.2315 │  0.1556 │   0.2040 │   0 ⋯
└─────┴────────────┴─────────┴──────────┴───────────┴─────────┴──────────┴──────
                                                274 columns and 105 rows omitted
…
